Calculate AZTI’s Marine Biotic Index • ambiR
…
library(ambiR)

## calling AMBI using the test data set
AMBI(test_data, by=c("station"), var_rep = "replicate")
#> $AMBI
#> # A tibble: 3 × 11
#>   station  AMBI     H     S   fNA     N     I    II   III     IV      V
#>     <dbl> <dbl> <dbl> <int> <dbl> <dbl> <dbl> <dbl> <dbl>  <dbl>  <dbl>
#> 1       1  1.48  1.80     6     0    16 0.125 0.75  0.125 0      0     
#> 2       2  1.89  3.54    22     0    80 0.4   0.138 0.3   0.15   0.0125
#> 3       3  4.12  2.50     9     0    24 0     0.125 0.292 0.0833 0.5   
#> 
#> $matched
#> # A tibble: 53 × 6
#>    station replicate species             count group    RA
#>      <dbl> <chr>     <chr>               <dbl> <dbl> <dbl>
#>  1       1 a         Cumopsis fagei          2     2     0
#>  2       1 a         Diogenes pugilator      2     2     0
#>  3       1 a         Paradoneis armata       1     3     0
#>  4       1 b         Bathyporeia elegans     1     1     0
#>  5       1 b         Diogenes pugilator      5     2     0
#>  6       1 b         Dispio uncinata         1     3     0
#>  7       1 c         Astarte sp.             1     1     0
#>  8       1 c         Diogenes pugilator      3     2     0
#>  9       2 a         Cumopsis fagei          1     2     0
#> 10       2 a         Glycera tridactyla      2     2     0
#> # ℹ 43 more rows
…
