…
#> $AMBI_rep
#> # A tibble: 8 × 11
#>   station replicate  AMBI     S fNA       N I     II    III   IV    V    
#>     <dbl> <chr>     <dbl> <dbl> <chr> <dbl> <chr> <chr> <chr> <chr> <chr>
#> 1       1 a          1.8      3 0.0%      5 0.0%  80.0% 20.0% 0.0%  0.0% 
#> 2       1 b          1.5      3 0.0%      7 14.3% 71.4% 14.3% 0.0%  0.0% 
#> 3       1 c          1.12     2 0.0%      4 25.0% 75.0% 0.0%  0.0%  0.0% 
#> 4       2 a          1.88    12 0.0%     32 40.6% 15.6% 21.9% 21.9% 0.0% 
#> 5       2 b          2.13    12 0.0%     19 31.6% 15.8% 36.8% 10.5% 5.3% 
#> 6       2 c          1.66    10 0.0%     29 44.8% 10.3% 34.5% 10.3% 0.0% 
#> 7       3 a          3.5      5 0.0%      6 0.0%  33.3% 16.7% 33.3% 16.7%
#> 8       3 b          4.75     6 0.0%     18 0.0%  5.6%  33.3% 0.0%  61.1%
#> 
#> $matched
#> # A tibble: 53 × 7
#>    station replicate species             species_matched     count group    RA
#>      <dbl> <chr>     <chr>               <chr>               <dbl> <dbl> <dbl>
#>  1       1 a         Cumopsis fagei      Cumopsis fagei          2     2     0
#>  2       1 a         Diogenes pugilator  Diogenes pugilator      2     2     0
#>  3       1 a         Paradoneis armata   Paradoneis armata       1     3     0
#>  4       1 b         Bathyporeia elegans Bathyporeia elegans     1     1     0
#>  5       1 b         Diogenes pugilator  Diogenes pugilator      5     2     0
#>  6       1 b         Dispio uncinata     Dispio uncinata         1     3     0
#>  7       1 c         Astarte sp.         Astarte sp.             1     1     0
#>  8       1 c         Diogenes pugilator  Diogenes pugilator      3     2     0
#>  9       2 a         Cumopsis fagei      Cumopsis fagei          1     2     0
#> 10       2 a         Glycera tridactyla  Glycera tridactyla      2     2     0
#> # ℹ 43 more rows
```
…
