…
#> $AMBI_rep
#> # A tibble: 8 × 11
#>   station replicate  AMBI     S fNA       N I      II     III    IV     V     
#>     <dbl> <chr>     <dbl> <dbl> <chr> <dbl> <chr>  <chr>  <chr>  <chr>  <chr> 
#> 1       1 a          1.8      3 0.00%     5 0.00%  80.00% 20.00% 0.00%  0.00% 
#> 2       1 b          1.5      3 0.00%     7 14.29% 71.43% 14.29% 0.00%  0.00% 
#> 3       1 c          1.12     2 0.00%     4 25.00% 75.00% 0.00%  0.00%  0.00% 
#> 4       2 a          1.88    12 0.00%    32 40.62% 15.62% 21.88% 21.88% 0.00% 
#> 5       2 b          2.13    12 0.00%    19 31.58% 15.79% 36.84% 10.53% 5.26% 
#> 6       2 c          1.66    10 0.00%    29 44.83% 10.34% 34.48% 10.34% 0.00% 
#> 7       3 a          3.5      5 0.00%     6 0.00%  33.33% 16.67% 33.33% 16.67%
#> 8       3 b          4.75     6 0.00%    18 0.00%  5.56%  33.33% 0.00%  61.11%
#> 
#> $matched
#> # A tibble: 53 × 6
#>    station replicate species             count group    RA
#>      <dbl> <chr>     <chr>               <dbl> <dbl> <dbl>
#>  1       1 a         Cumopsis fagei          2     2     0
#>  2       1 a         Diogenes pugilator      2     2     0
#>  3       1 a         Paradoneis armata       1     3     0
#>  4       1 b         Bathyporeia elegans     1     1     0
#>  5       1 b         Diogenes pugilator      5     2     0
#>  6       1 b         Dispio uncinata         1     3     0
#>  7       1 c         Astarte sp.             1     1     0
#>  8       1 c         Diogenes pugilator      3     2     0
#>  9       2 a         Cumopsis fagei          1     2     0
#> 10       2 a         Glycera tridactyla      2     2     0
#> # ℹ 43 more rows
…
