…
#> $AMBI_rep
#> # A tibble: 8 × 11
#>   station replicate  AMBI     S   fNA     N     I     II   III    IV      V
#>     <dbl> <chr>     <dbl> <dbl> <dbl> <dbl> <dbl>  <dbl> <dbl> <dbl>  <dbl>
#> 1       1 a          1.8      3     0     5 0     0.8    0.2   0     0     
#> 2       1 b          1.5      3     0     7 0.143 0.714  0.143 0     0     
#> 3       1 c          1.12     2     0     4 0.25  0.75   0     0     0     
#> 4       2 a          1.88    12     0    32 0.406 0.156  0.219 0.219 0     
#> 5       2 b          2.13    12     0    19 0.316 0.158  0.368 0.105 0.0526
#> 6       2 c          1.66    10     0    29 0.448 0.103  0.345 0.103 0     
#> 7       3 a          3.5      5     0     6 0     0.333  0.167 0.333 0.167 
#> 8       3 b          4.75     6     0    18 0     0.0556 0.333 0     0.611 
#> 
#> $matched
#> # A tibble: 53 × 7
#>    station replicate species             species_matched     count group    RA
#>      <dbl> <chr>     <chr>               <chr>               <dbl> <dbl> <dbl>
#>  1       1 a         Cumopsis fagei      Cumopsis fagei          2     2     0
#>  2       1 a         Diogenes pugilator  Diogenes pugilator      2     2     0
#>  3       1 a         Paradoneis armata   Paradoneis armata       1     3     0
#>  4       1 b         Bathyporeia elegans Bathyporeia elegans     1     1     0
#>  5       1 b         Diogenes pugilator  Diogenes pugilator      5     2     0
#>  6       1 b         Dispio uncinata     Dispio uncinata         1     3     0
#>  7       1 c         Astarte sp.         Astarte sp.             1     1     0
#>  8       1 c         Diogenes pugilator  Diogenes pugilator      3     2     0
#>  9       2 a         Cumopsis fagei      Cumopsis fagei          1     2     0
#> 10       2 a         Glycera tridactyla  Glycera tridactyla      2     2     0
#> # ℹ 43 more rows
…
#> $AMBI_rep
#> # A tibble: 8 × 11
#>   station replicate  AMBI     S   fNA     N     I     II   III    IV      V
#>     <dbl> <chr>     <dbl> <dbl> <dbl> <dbl> <dbl>  <dbl> <dbl> <dbl>  <dbl>
#> 1       1 a          1.8      3     0     5 0     0.8    0.2   0     0     
#> 2       1 b          1.5      3     0     7 0.143 0.714  0.143 0     0     
#> 3       1 c          1.12     2     0     4 0.25  0.75   0     0     0     
#> 4       2 a          1.88    12     0    32 0.406 0.156  0.219 0.219 0     
#> 5       2 b          2.13    12     0    19 0.316 0.158  0.368 0.105 0.0526
#> 6       2 c          1.66    10     0    29 0.448 0.103  0.345 0.103 0     
#> 7       3 a          3.5      5     0     6 0     0.333  0.167 0.333 0.167 
#> 8       3 b          4.75     6     0    18 0     0.0556 0.333 0     0.611 
#> 
#> $matched
#> # A tibble: 53 × 9
#>    station replicate species species_matched count group source    RA group_note
#>      <dbl> <chr>     <chr>   <chr>           <dbl> <dbl> <chr>  <dbl> <chr>     
#>  1       1 a         Cumops… Cumopsis fagei      2     2 NA         0 ignored u…
#>  2       1 a         Diogen… Diogenes pugil…     2     2 NA         0 NA        
#>  3       1 a         Parado… Paradoneis arm…     1     3 NA         0 NA        
#>  4       1 b         Bathyp… Bathyporeia el…     1     1 NA         0 NA        
#>  5       1 b         Diogen… Diogenes pugil…     5     2 NA         0 NA        
#>  6       1 b         Dispio… Dispio uncinata     1     3 NA         0 NA        
#>  7       1 c         Astart… Astarte sp.         1     1 NA         0 NA        
#>  8       1 c         Diogen… Diogenes pugil…     3     2 NA         0 NA        
#>  9       2 a         Cumops… Cumopsis fagei      1     2 NA         0 ignored u…
#> 10       2 a         Glycer… Glycera tridac…     2     2 NA         0 NA        
#> # ℹ 43 more rows
…
