Calculates H' the Shannon diversity index — Hdash • ambiR
…
    Examples

Hdash(test_data, by=c("station"))
#> $H
#> # A tibble: 3 × 4
#>   station     H     N     S
#>     <dbl> <dbl> <dbl> <int>
#> 1       1  1.80    16     6
#> 2       2  3.54    80    22
#> 3       3  2.50    24     9
#> 
#> $matched
#> # A tibble: 53 × 6
#>    station replicate species             count group    RA
#>      <dbl> <chr>     <chr>               <dbl> <dbl> <dbl>
#>  1       1 a         Cumopsis fagei          2     2     0
#>  2       1 a         Diogenes pugilator      2     2     0
#>  3       1 a         Paradoneis armata       1     3     0
#>  4       1 b         Bathyporeia elegans     1     1     0
#>  5       1 b         Diogenes pugilator      5     2     0
#>  6       1 b         Dispio uncinata         1     3     0
#>  7       1 c         Astarte sp.             1     1     0
#>  8       1 c         Diogenes pugilator      3     2     0
#>  9       2 a         Cumopsis fagei          1     2     0
#> 10       2 a         Glycera tridactyla      2     2     0
#> # ℹ 43 more rows
…
